{
    "/pms-api" : {
        "target" : "http://localhost:8080",
        "secure" :false,
        "ChangeOrigin" :true 
    },
    "/pms_be" :{
        "target" : "http://localhost:8080",
        "secure" :false,
        "ChangeOrigin" :true 
    }

}